{
    "version":1,
    "disable_existing_loggers":false,
    "handlers":{
        "libHandler":{
            "class":"logging.FileHandler",
            "formatter":"simple",
            "filename":"forgetmenote.log",
            "mode":"w"
        },
        "appHandler":{
            "class":"logging.FileHandler",
            "formatter":"simple",
            "filename":"app.log"
        },
        "consoleHandler":{
            "class":"logging.StreamHandler",
            "level":"WARNING"
        }
    },
    "loggers":{
        "forgetmenote": {
            "level": "INFO",
            "handlers":["libHandler"],
            "propagate": false
        },
        "exception_logger": {
            "level": "ERROR",
            "handlers":["appHandler"],
            "propagate":false
        },
        "":{
            "level":"INFO",
            "handlers":["appHandler", "consoleHandler"]
        }
    },
    "formatters":{
        "simple":{
            "format":"%(asctime)s - %(name)s - %(levelname)s - %(message)s"
        }
    }
}